H S P E S S C 
P E S S C 
P S H S C 
P S H E S S C 
S S H S P E C 
S S H S P S C 
C S P E S S H 
C S P E H 
P E S S C S H 
P E C S H 
S S C S H 
S S C S P E H 
S S C S P S H 
C S S S H S P 
H S C S P 
H E S S C S P 
S S C S H S P 
S S C S P 
S S H S C S P 
S S H S P 
C S H E S 
C S P E S 
C S P E H E S 
C S P S H E S 
H S C S P E S 
P E C S H E S 
P S C S H E S 
P S H S C S S 
P S H E S 
